{
"type": "FeatureCollection",
"creator": "svg2geojson v0.7.0",
"name": "CartoMetroTramBruxelles.v1.9.line.5",
"features": [
    {
      "type": "Feature",
      "properties": {
        "dashed": true
      },
      "geometry": {
        "type": "LineString",
        "coordinates":  [
          [ 4.399269, 50.839227 ], [ 4.390981, 50.840976 ], [ 4.384688, 50.842301 ], [ 4.366333, 50.846163 ], [ 4.366301, 50.846169 ], [ 4.366236, 50.84618 ], [ 4.366169, 50.846189 ], [ 4.366101, 50.846195 ], [ 4.366032, 50.846199 ], [ 4.365962, 50.846201 ], [ 4.365892, 50.846201 ], [ 4.365821, 50.8462 ], [ 4.36575, 50.846196 ], [ 4.36568, 50.846192 ], [ 4.365609, 50.846186 ], [ 4.365539, 50.846178 ], [ 4.36547, 50.84617 ], [ 4.365402, 50.84616 ], [ 4.365335, 50.84615 ], [ 4.365269, 50.846139 ], [ 4.365237, 50.846133 ], [ 4.362292, 50.845592 ], [ 4.362245, 50.845583 ], [ 4.362149, 50.845567 ], [ 4.362052, 50.845551 ], [ 4.361954, 50.845536 ], [ 4.361854, 50.845523 ], [ 4.361753, 50.845511 ], [ 4.361651, 50.8455 ], [ 4.361548, 50.84549 ], [ 4.361445, 50.845483 ], [ 4.361342, 50.845477 ], [ 4.361238, 50.845472 ], [ 4.361135, 50.84547 ], [ 4.361032, 50.84547 ], [ 4.360929, 50.845472 ], [ 4.360826, 50.845476 ], [ 4.360725, 50.845483 ], [ 4.360624, 50.845493 ], [ 4.360525, 50.845505 ], [ 4.360427, 50.84552 ], [ 4.36033, 50.845537 ], [ 4.360235, 50.845558 ], [ 4.360142, 50.845582 ], [ 4.360074, 50.845603 ], [ 4.360029, 50.845617 ], [ 4.359985, 50.845632 ], [ 4.359941, 50.845649 ], [ 4.359898, 50.845666 ], [ 4.359855, 50.845684 ], [ 4.359813, 50.845703 ], [ 4.359772, 50.845723 ], [ 4.359732, 50.845744 ], [ 4.359692, 50.845765 ], [ 4.359653, 50.845788 ], [ 4.359615, 50.845812 ], [ 4.359578, 50.845837 ], [ 4.359541, 50.845863 ], [ 4.359506, 50.84589 ], [ 4.359471, 50.845918 ], [ 4.359437, 50.845947 ], [ 4.359404, 50.845977 ], [ 4.359372, 50.846008 ], [ 4.359341, 50.84604 ], [ 4.359326, 50.846057 ], [ 4.358546, 50.846925 ], [ 4.35849, 50.846988 ], [ 4.358408, 50.847076 ], [ 4.358349, 50.847134 ], [ 4.358281, 50.847194 ], [ 4.358222, 50.847242 ], [ 4.358178, 50.847276 ], [ 4.358103, 50.847331 ], [ 4.357985, 50.847413 ], [ 4.357916, 50.847459 ], [ 4.356892, 50.848131 ], [ 4.356841, 50.848164 ], [ 4.356739, 50.848228 ], [ 4.356638, 50.848289 ], [ 4.356538, 50.848346 ], [ 4.35644, 50.8484 ], [ 4.356342, 50.848451 ], [ 4.356246, 50.848499 ], [ 4.356151, 50.848544 ], [ 4.356058, 50.848586 ], [ 4.355965, 50.848626 ], [ 4.355875, 50.848663 ], [ 4.355785, 50.848698 ], [ 4.355698, 50.848731 ], [ 4.355611, 50.848762 ], [ 4.355527, 50.848791 ], [ 4.355444, 50.848818 ], [ 4.355324, 50.848856 ], [ 4.355169, 50.848901 ], [ 4.355023, 50.84894 ], [ 4.354885, 50.848976 ], [ 4.354756, 50.849009 ], [ 4.354636, 50.84904 ], [ 4.354526, 50.84907 ], [ 4.354451, 50.849092 ], [ 4.354403, 50.849107 ], [ 4.354381, 50.849115 ], [ 4.353732, 50.849342 ], [ 4.353702, 50.849353 ], [ 4.353633, 50.849378 ], [ 4.353555, 50.849408 ], [ 4.353473, 50.849442 ], [ 4.35339, 50.849478 ], [ 4.35331, 50.849515 ], [ 4.353235, 50.849553 ], [ 4.353185, 50.849581 ], [ 4.353156, 50.849599 ], [ 4.353143, 50.849608 ], [ 4.352157, 50.850287 ], [ 4.352132, 50.850304 ], [ 4.352074, 50.85034 ], [ 4.352006, 50.850381 ], [ 4.351928, 50.850424 ], [ 4.351842, 50.85047 ], [ 4.351747, 50.850518 ], [ 4.351644, 50.850568 ], [ 4.351534, 50.850618 ], [ 4.351418, 50.850669 ], [ 4.351295, 50.850721 ], [ 4.351167, 50.850771 ], [ 4.351035, 50.850821 ], [ 4.350898, 50.850868 ], [ 4.350758, 50.850914 ], [ 4.350615, 50.850957 ], [ 4.350506, 50.850987 ], [ 4.350433, 50.851006 ], [ 4.350397, 50.851016 ], [ 4.35036, 50.851025 ], [ 4.350286, 50.851041 ], [ 4.350212, 50.851057 ], [ 4.350139, 50.85107 ], [ 4.350066, 50.851083 ], [ 4.349994, 50.851095 ], [ 4.349887, 50.85111 ], [ 4.349748, 50.851128 ], [ 4.349612, 50.851144 ], [ 4.349481, 50.851159 ], [ 4.349356, 50.851174 ], [ 4.349236, 50.85119 ], [ 4.349152, 50.851203 ], [ 4.349097, 50.851213 ], [ 4.349045, 50.851223 ], [ 4.348995, 50.851235 ], [ 4.348947, 50.851247 ], [ 4.348902, 50.851261 ], [ 4.348858, 50.851275 ], [ 4.348818, 50.851292 ], [ 4.348779, 50.85131 ], [ 4.348744, 50.851329 ], [ 4.348711, 50.851351 ], [ 4.348681, 50.851374 ], [ 4.348654, 50.8514 ], [ 4.34863, 50.851427 ], [ 4.34862, 50.851442 ], [ 4.3473, 50.853357 ], [ 4.34729, 50.853371 ], [ 4.347269, 50.853399 ], [ 4.347246, 50.853426 ], [ 4.347223, 50.853452 ], [ 4.347198, 50.853476 ], [ 4.347173, 50.8535 ], [ 4.347146, 50.853523 ], [ 4.347118, 50.853545 ], [ 4.347089, 50.853566 ], [ 4.347059, 50.853586 ], [ 4.347028, 50.853605 ], [ 4.346996, 50.853624 ], [ 4.346962, 50.853641 ], [ 4.346928, 50.853658 ], [ 4.346893, 50.853674 ], [ 4.346857, 50.853689 ], [ 4.34682, 50.853703 ], [ 4.346783, 50.853717 ], [ 4.346724, 50.853736 ], [ 4.346643, 50.853758 ], [ 4.346559, 50.853778 ], [ 4.346472, 50.853796 ], [ 4.346381, 50.853811 ], [ 4.346288, 50.853823 ], [ 4.346192, 50.853834 ], [ 4.346143, 50.853838 ], [ 4.342915, 50.854118 ], [ 4.342836, 50.854125 ], [ 4.342673, 50.854142 ], [ 4.342548, 50.854156 ], [ 4.342464, 50.854168 ], [ 4.342379, 50.85418 ], [ 4.342294, 50.854195 ], [ 4.342208, 50.854211 ], [ 4.342123, 50.854229 ], [ 4.342037, 50.85425 ], [ 4.341953, 50.854273 ], [ 4.341868, 50.854299 ], [ 4.341785, 50.854328 ], [ 4.341703, 50.85436 ], [ 4.341621, 50.854395 ], [ 4.341581, 50.854414 ], [ 4.338299, 50.856014 ], [ 4.338234, 50.856046 ], [ 4.3381, 50.85611 ], [ 4.337963, 50.856173 ], [ 4.337824, 50.856235 ], [ 4.337682, 50.856297 ], [ 4.337538, 50.856358 ], [ 4.337391, 50.856417 ], [ 4.337242, 50.856476 ], [ 4.337091, 50.856533 ], [ 4.336938, 50.856589 ], [ 4.336784, 50.856644 ], [ 4.336627, 50.856697 ], [ 4.336469, 50.856748 ], [ 4.33631, 50.856797 ], [ 4.336149, 50.856845 ], [ 4.335987, 50.85689 ], [ 4.335824, 50.856933 ], [ 4.33566, 50.856973 ], [ 4.335495, 50.857012 ], [ 4.335329, 50.857047 ], [ 4.335162, 50.85708 ], [ 4.334996, 50.85711 ], [ 4.334828, 50.857137 ], [ 4.334661, 50.857161 ], [ 4.334493, 50.857182 ], [ 4.334325, 50.8572 ], [ 4.334158, 50.857214 ], [ 4.334032, 50.857222 ], [ 4.333949, 50.857226 ], [ 4.333865, 50.85723 ], [ 4.333782, 50.857232 ], [ 4.333699, 50.857234 ], [ 4.333615, 50.857234 ], [ 4.333533, 50.857234 ], [ 4.33345, 50.857232 ], [ 4.333367, 50.85723 ], [ 4.333285, 50.857226 ], [ 4.333244, 50.857224 ], [ 4.331343, 50.857119 ], [ 4.331273, 50.857115 ], [ 4.331138, 50.857105 ], [ 4.331006, 50.857094 ], [ 4.330879, 50.857082 ], [ 4.330755, 50.857069 ], [ 4.330636, 50.857055 ], [ 4.330466, 50.857033 ], [ 4.330252, 50.857004 ], [ 4.330056, 50.856978 ], [ 4.32992, 50.856961 ], [ 4.329835, 50.856952 ], [ 4.329754, 50.856944 ], [ 4.329677, 50.856938 ], [ 4.329641, 50.856936 ], [ 4.328298, 50.856875 ], [ 4.328235, 50.856872 ], [ 4.328109, 50.856864 ], [ 4.327983, 50.856855 ], [ 4.327858, 50.856844 ], [ 4.327732, 50.856831 ], [ 4.327607, 50.856816 ], [ 4.327482, 50.8568 ], [ 4.327358, 50.856782 ], [ 4.327235, 50.856762 ], [ 4.327113, 50.85674 ], [ 4.326992, 50.856716 ], [ 4.326873, 50.85669 ], [ 4.326755, 50.856662 ], [ 4.326639, 50.856632 ], [ 4.326524, 50.8566 ], [ 4.326412, 50.856566 ], [ 4.326301, 50.85653 ], [ 4.326193, 50.856492 ], [ 4.326088, 50.856452 ], [ 4.325985, 50.856409 ], [ 4.325885, 50.856365 ], [ 4.325788, 50.856318 ], [ 4.325694, 50.856269 ], [ 4.325603, 50.856218 ], [ 4.325516, 50.856165 ], [ 4.325432, 50.856109 ], [ 4.325352, 50.856051 ], [ 4.325276, 50.855991 ], [ 4.325204, 50.855928 ], [ 4.325153, 50.855879 ], [ 4.32512, 50.855846 ], [ 4.325089, 50.855813 ], [ 4.325058, 50.855778 ], [ 4.325029, 50.855743 ], [ 4.325, 50.855708 ], [ 4.324987, 50.85569 ], [ 4.324112, 50.854518 ], [ 4.324094, 50.854493 ], [ 4.324057, 50.854437 ], [ 4.324019, 50.854373 ], [ 4.323981, 50.854304 ], [ 4.323942, 50.854229 ], [ 4.323903, 50.85415 ], [ 4.323845, 50.854027 ], [ 4.323732, 50.853775 ], [ 4.32363, 50.853542 ], [ 4.323571, 50.853411 ], [ 4.323545, 50.853357 ], [ 4.322718, 50.85168 ], [ 4.31999, 50.847643 ], [ 4.320589, 50.848763 ], [ 4.320604, 50.848791 ], [ 4.320641, 50.848854 ], [ 4.320685, 50.848924 ], [ 4.320735, 50.849 ], [ 4.320822, 50.849128 ], [ 4.320956, 50.849317 ], [ 4.321107, 50.849523 ], [ 4.321271, 50.849744 ], [ 4.321534, 50.850091 ], [ 4.321892, 50.85056 ], [ 4.322148, 50.850898 ], [ 4.322306, 50.851109 ], [ 4.322448, 50.851302 ], [ 4.322571, 50.851474 ], [ 4.322647, 50.851586 ], [ 4.32269, 50.851652 ], [ 4.322726, 50.85171 ], [ 4.322754, 50.85176 ], [ 4.322765, 50.851781 ]
        ]
      }
    }
]
}
