{
"type": "FeatureCollection",
"creator": "svg2geojson v0.7.0",
"name": "technic.strip",
"features": [
{ "type": "Feature", "properties": { "properties": null }, "geometry": { "type": "LineString", "coordinates": [ [ 4.405026, 50.819711 ], [ 4.405021, 50.819701 ], [ 4.405013, 50.819681 ], [ 4.405007, 50.819661 ], [ 4.405003, 50.819639 ], [ 4.405, 50.819617 ], [ 4.404999, 50.819594 ], [ 4.405001, 50.81956 ], [ 4.405007, 50.819512 ], [ 4.405017, 50.819463 ], [ 4.405037, 50.819387 ], [ 4.405068, 50.819287 ], [ 4.405089, 50.819214 ], [ 4.405101, 50.819166 ], [ 4.405109, 50.819121 ], [ 4.405112, 50.819078 ], [ 4.405111, 50.819047 ], [ 4.405109, 50.819028 ], [ 4.405104, 50.819009 ], [ 4.405098, 50.818991 ], [ 4.405094, 50.818983 ] ] } },
{ "type": "Feature", "properties": { "properties": null }, "geometry": { "type": "LineString", "coordinates": [ [ 4.403955, 50.817942 ], [ 4.403949, 50.817932 ], [ 4.403938, 50.817911 ], [ 4.403929, 50.817888 ], [ 4.403921, 50.817865 ], [ 4.403915, 50.817842 ], [ 4.40391, 50.817817 ], [ 4.403905, 50.817779 ], [ 4.403901, 50.817726 ], [ 4.403901, 50.817672 ], [ 4.403905, 50.817587 ], [ 4.403912, 50.817471 ], [ 4.403914, 50.817383 ], [ 4.403913, 50.817325 ], [ 4.403907, 50.817267 ], [ 4.4039, 50.817225 ], [ 4.403894, 50.817197 ], [ 4.403886, 50.81717 ], [ 4.403876, 50.817143 ], [ 4.403865, 50.817116 ], [ 4.403852, 50.81709 ], [ 4.403845, 50.817078 ] ] } },
{ "type": "Feature", "properties": { "properties": null }, "geometry": { "type": "LineString", "coordinates": [ [ 4.403724, 50.818008 ], [ 4.403715, 50.817996 ], [ 4.403695, 50.81797 ], [ 4.403669, 50.817943 ], [ 4.403639, 50.817915 ], [ 4.403588, 50.81787 ], [ 4.40351, 50.817804 ], [ 4.403445, 50.817749 ], [ 4.403401, 50.817709 ], [ 4.403356, 50.817667 ], [ 4.40331, 50.817622 ], [ 4.403265, 50.817575 ], [ 4.403221, 50.817524 ], [ 4.403177, 50.81747 ], [ 4.403136, 50.817412 ], [ 4.403116, 50.817382 ], [ 4.403071, 50.817313 ], [ 4.403005, 50.817211 ], [ 4.402958, 50.817142 ], [ 4.402909, 50.817072 ], [ 4.402855, 50.816999 ], [ 4.402796, 50.816923 ], [ 4.402729, 50.816843 ], [ 4.402693, 50.8168 ], [ 4.401954, 50.815948 ] ] } },
{ "type": "Feature", "properties": { "properties": null }, "geometry": { "type": "LineString", "coordinates": [ [ 4.404187, 50.81749 ], [ 4.404181, 50.817481 ], [ 4.404157, 50.817451 ], [ 4.404097, 50.817378 ], [ 4.403983, 50.817244 ], [ 4.403849, 50.817084 ], [ 4.40378, 50.817 ] ] } },
{ "type": "Feature", "properties": { "properties": null }, "geometry": { "type": "LineString", "coordinates": [ [ 4.404164, 50.819549 ], [ 4.403377, 50.818262 ], [ 4.403336, 50.818193 ], [ 4.403241, 50.818028 ], [ 4.403131, 50.817832 ], [ 4.403007, 50.817617 ], [ 4.402907, 50.817448 ], [ 4.402838, 50.817333 ], [ 4.402767, 50.817219 ], [ 4.402695, 50.817107 ], [ 4.402621, 50.816996 ], [ 4.402547, 50.81689 ], [ 4.402472, 50.816788 ], [ 4.402397, 50.816693 ], [ 4.40236, 50.816648 ], [ 4.40139, 50.8155 ] ] } },
{ "type": "Feature", "properties": { "properties": null }, "geometry": { "type": "LineString", "coordinates": [ [ 4.402601, 50.816968 ], [ 4.402596, 50.816957 ], [ 4.402587, 50.816935 ], [ 4.402581, 50.816915 ], [ 4.402577, 50.816894 ], [ 4.402576, 50.816865 ], [ 4.402578, 50.816826 ], [ 4.402581, 50.816786 ], [ 4.402581, 50.816754 ], [ 4.402579, 50.816732 ], [ 4.402574, 50.816709 ], [ 4.402567, 50.816684 ], [ 4.402556, 50.816658 ], [ 4.402541, 50.81663 ], [ 4.402531, 50.816616 ] ] } },
{ "type": "Feature", "properties": { "properties": null }, "geometry": { "type": "LineString", "coordinates": [ [ 4.404262, 50.816328 ], [ 4.404265, 50.816318 ], [ 4.404267, 50.816298 ], [ 4.404267, 50.816278 ], [ 4.404263, 50.816258 ], [ 4.404257, 50.816237 ], [ 4.404249, 50.816217 ], [ 4.404239, 50.816197 ], [ 4.404228, 50.816176 ], [ 4.404208, 50.816146 ], [ 4.404178, 50.816108 ], [ 4.404132, 50.816056 ], [ 4.404104, 50.816025 ], [ 4.403514, 50.815381 ] ] } },
{ "type": "Feature", "properties": { "properties": null }, "geometry": { "type": "LineString", "coordinates": [ [ 4.405408, 50.820105 ], [ 4.405395, 50.820082 ], [ 4.405371, 50.820037 ], [ 4.40535, 50.819993 ], [ 4.405331, 50.819951 ], [ 4.405314, 50.819909 ], [ 4.4053, 50.819869 ], [ 4.405282, 50.819811 ], [ 4.405263, 50.819736 ], [ 4.40525, 50.819665 ], [ 4.405241, 50.819597 ], [ 4.405235, 50.819532 ], [ 4.405229, 50.819438 ], [ 4.405222, 50.819347 ], [ 4.405214, 50.819288 ], [ 4.405204, 50.819229 ], [ 4.405193, 50.819185 ], [ 4.405184, 50.819156 ], [ 4.405173, 50.819126 ], [ 4.40516, 50.819097 ], [ 4.405146, 50.819067 ], [ 4.40513, 50.819037 ], [ 4.405121, 50.819022 ], [ 4.404438, 50.8179 ], [ 4.404395, 50.817833 ], [ 4.404298, 50.817684 ], [ 4.404244, 50.817594 ], [ 4.404208, 50.817531 ], [ 4.404173, 50.817465 ], [ 4.40414, 50.817399 ], [ 4.404111, 50.817333 ], [ 4.404087, 50.817268 ], [ 4.404072, 50.817221 ], [ 4.404064, 50.817189 ], [ 4.404058, 50.817159 ], [ 4.404053, 50.81713 ], [ 4.404051, 50.817101 ], [ 4.404051, 50.817074 ], [ 4.404053, 50.817047 ], [ 4.404057, 50.817022 ], [ 4.404061, 50.81701 ], [ 4.404286, 50.816249 ], [ 4.404289, 50.81624 ], [ 4.404291, 50.81622 ], [ 4.40429, 50.8162 ], [ 4.404286, 50.816179 ], [ 4.40428, 50.816159 ], [ 4.404272, 50.816138 ], [ 4.404262, 50.816118 ], [ 4.40425, 50.816098 ], [ 4.40423, 50.816068 ], [ 4.404201, 50.816029 ], [ 4.404156, 50.815977 ], [ 4.404128, 50.815946 ], [ 4.403606, 50.81538 ] ] } },
{ "type": "Feature", "properties": { "properties": null }, "geometry": { "type": "LineString", "coordinates": [ [ 4.401953, 50.815949 ], [ 4.401938, 50.815931 ], [ 4.401909, 50.815896 ], [ 4.401883, 50.815861 ], [ 4.401862, 50.815826 ], [ 4.401843, 50.815792 ], [ 4.401828, 50.815758 ], [ 4.401816, 50.815725 ], [ 4.401808, 50.815692 ], [ 4.401803, 50.81566 ], [ 4.401801, 50.815629 ], [ 4.401802, 50.815598 ], [ 4.401807, 50.815568 ], [ 4.401814, 50.815539 ], [ 4.401825, 50.815511 ], [ 4.401838, 50.815484 ], [ 4.401854, 50.815458 ], [ 4.401874, 50.815434 ], [ 4.401896, 50.81541 ], [ 4.401921, 50.815387 ], [ 4.401948, 50.815366 ], [ 4.401978, 50.815346 ], [ 4.402011, 50.815327 ], [ 4.402047, 50.81531 ], [ 4.402085, 50.815295 ], [ 4.402125, 50.81528 ], [ 4.402168, 50.815268 ], [ 4.402214, 50.815257 ], [ 4.402262, 50.815247 ], [ 4.402312, 50.81524 ], [ 4.402364, 50.815234 ], [ 4.402419, 50.81523 ], [ 4.402476, 50.815228 ], [ 4.402505, 50.815228 ], [ 4.40323, 50.815217 ], [ 4.403259, 50.815216 ], [ 4.403319, 50.815218 ], [ 4.403365, 50.815221 ], [ 4.403396, 50.815225 ], [ 4.403428, 50.81523 ], [ 4.403459, 50.815236 ], [ 4.40349, 50.815244 ], [ 4.403521, 50.815254 ], [ 4.403551, 50.815265 ], [ 4.40358, 50.815278 ], [ 4.403609, 50.815293 ], [ 4.403636, 50.815311 ], [ 4.403662, 50.81533 ], [ 4.403687, 50.815352 ], [ 4.403698, 50.815364 ], [ 4.404216, 50.815929 ], [ 4.404226, 50.815941 ], [ 4.404245, 50.815966 ], [ 4.404261, 50.81599 ], [ 4.404273, 50.816014 ], [ 4.404283, 50.816039 ], [ 4.404291, 50.816064 ], [ 4.404296, 50.816089 ], [ 4.404299, 50.816114 ], [ 4.404299, 50.816139 ], [ 4.404299, 50.816163 ], [ 4.404294, 50.8162 ], [ 4.404284, 50.816249 ], [ 4.404269, 50.816297 ], [ 4.404261, 50.81632 ] ] } },
{ "type": "Feature", "properties": { "properties": null }, "geometry": { "type": "LineString", "coordinates": [ [ 4.404233, 50.816413 ], [ 4.404236, 50.816403 ], [ 4.404238, 50.816383 ], [ 4.404238, 50.816363 ], [ 4.404234, 50.816343 ], [ 4.404228, 50.816322 ], [ 4.40422, 50.816302 ], [ 4.40421, 50.816281 ], [ 4.404199, 50.816261 ], [ 4.404179, 50.816231 ], [ 4.404149, 50.816193 ], [ 4.404103, 50.81614 ], [ 4.404075, 50.81611 ], [ 4.403409, 50.815378 ] ] } },
{ "type": "Feature", "properties": { "properties": null }, "geometry": { "type": "LineString", "coordinates": [ [ 4.404216, 50.816493 ], [ 4.404218, 50.816484 ], [ 4.404221, 50.816464 ], [ 4.40422, 50.816444 ], [ 4.404217, 50.816423 ], [ 4.404211, 50.816403 ], [ 4.404202, 50.816382 ], [ 4.404192, 50.816362 ], [ 4.40418, 50.816342 ], [ 4.40416, 50.816312 ], [ 4.404131, 50.816274 ], [ 4.404085, 50.816221 ], [ 4.404058, 50.81619 ], [ 4.403294, 50.815353 ] ] } },
{ "type": "Feature", "properties": { "properties": null }, "geometry": { "type": "LineString", "coordinates": [ [ 4.404187, 50.816574 ], [ 4.404189, 50.816565 ], [ 4.404192, 50.816545 ], [ 4.404191, 50.816525 ], [ 4.404188, 50.816505 ], [ 4.404182, 50.816485 ], [ 4.404174, 50.816464 ], [ 4.404163, 50.816444 ], [ 4.404152, 50.816424 ], [ 4.404131, 50.816394 ], [ 4.404102, 50.816356 ], [ 4.404056, 50.816303 ], [ 4.404029, 50.816273 ], [ 4.403218, 50.815378 ] ] } },
{ "type": "Feature", "properties": { "properties": null }, "geometry": { "type": "LineString", "coordinates": [ [ 4.404164, 50.816663 ], [ 4.404166, 50.816653 ], [ 4.404168, 50.816633 ], [ 4.404167, 50.816613 ], [ 4.404164, 50.816593 ], [ 4.404158, 50.816573 ], [ 4.404149, 50.816552 ], [ 4.404139, 50.816532 ], [ 4.404127, 50.816512 ], [ 4.404107, 50.816482 ], [ 4.404078, 50.816444 ], [ 4.404032, 50.816391 ], [ 4.404003, 50.816361 ], [ 4.403142, 50.815407 ] ] } },
{ "type": "Feature", "properties": { "properties": null }, "geometry": { "type": "LineString", "coordinates": [ [ 4.404141, 50.816747 ], [ 4.404143, 50.816737 ], [ 4.404145, 50.816718 ], [ 4.404144, 50.816697 ], [ 4.404141, 50.816677 ], [ 4.404134, 50.816657 ], [ 4.404126, 50.816636 ], [ 4.404116, 50.816616 ], [ 4.404104, 50.816595 ], [ 4.404084, 50.816566 ], [ 4.404054, 50.816527 ], [ 4.404008, 50.816475 ], [ 4.40398, 50.816444 ], [ 4.40307, 50.815434 ] ] } },
{ "type": "Feature", "properties": { "properties": null }, "geometry": { "type": "LineString", "coordinates": [ [ 4.404117, 50.816824 ], [ 4.40412, 50.816815 ], [ 4.404122, 50.816795 ], [ 4.404121, 50.816775 ], [ 4.404117, 50.816754 ], [ 4.404111, 50.816734 ], [ 4.404103, 50.816713 ], [ 4.404093, 50.816693 ], [ 4.404081, 50.816673 ], [ 4.404061, 50.816643 ], [ 4.404031, 50.816605 ], [ 4.403985, 50.816552 ], [ 4.403957, 50.816521 ], [ 4.402999, 50.815458 ] ] } },
{ "type": "Feature", "properties": { "properties": null }, "geometry": { "type": "LineString", "coordinates": [ [ 4.404088, 50.816909 ], [ 4.404091, 50.816899 ], [ 4.404093, 50.816879 ], [ 4.404092, 50.816859 ], [ 4.404088, 50.816839 ], [ 4.404082, 50.816818 ], [ 4.404074, 50.816798 ], [ 4.404064, 50.816777 ], [ 4.404052, 50.816757 ], [ 4.404032, 50.816727 ], [ 4.404002, 50.816689 ], [ 4.403956, 50.816636 ], [ 4.403928, 50.816606 ], [ 4.402923, 50.815488 ] ] } },
{ "type": "Feature", "properties": { "properties": null }, "geometry": { "type": "LineString", "coordinates": [ [ 4.404065, 50.81699 ], [ 4.404068, 50.81698 ], [ 4.40407, 50.81696 ], [ 4.404069, 50.81694 ], [ 4.404065, 50.81692 ], [ 4.404059, 50.816899 ], [ 4.404051, 50.816879 ], [ 4.404041, 50.816858 ], [ 4.404029, 50.816838 ], [ 4.404009, 50.816808 ], [ 4.40398, 50.81677 ], [ 4.403935, 50.816717 ], [ 4.403907, 50.816687 ], [ 4.402852, 50.815513 ] ] } },
{ "type": "Feature", "properties": { "properties": null }, "geometry": { "type": "LineString", "coordinates": [ [ 4.403221, 50.81532 ], [ 4.4032, 50.815316 ], [ 4.403163, 50.815311 ], [ 4.403121, 50.815308 ], [ 4.403064, 50.815308 ], [ 4.403026, 50.815309 ], [ 4.402638, 50.815319 ], [ 4.402609, 50.81532 ], [ 4.402555, 50.815324 ], [ 4.402503, 50.81533 ], [ 4.402455, 50.815338 ], [ 4.40241, 50.815348 ], [ 4.402368, 50.81536 ], [ 4.402329, 50.815374 ], [ 4.402293, 50.81539 ], [ 4.40226, 50.815407 ], [ 4.402229, 50.815426 ], [ 4.402202, 50.815446 ], [ 4.402177, 50.815467 ], [ 4.402155, 50.81549 ], [ 4.402136, 50.815513 ], [ 4.402119, 50.815538 ], [ 4.402105, 50.815563 ], [ 4.402093, 50.81559 ], [ 4.402084, 50.815617 ], [ 4.402077, 50.815644 ], [ 4.402072, 50.815672 ], [ 4.40207, 50.8157 ], [ 4.40207, 50.815728 ], [ 4.402072, 50.815757 ], [ 4.402077, 50.815785 ], [ 4.402083, 50.815814 ], [ 4.402092, 50.815842 ], [ 4.402103, 50.81587 ], [ 4.402115, 50.815897 ], [ 4.40213, 50.815924 ], [ 4.402146, 50.81595 ], [ 4.402164, 50.815976 ], [ 4.402184, 50.816001 ], [ 4.402195, 50.816013 ] ] } },
{ "type": "Feature", "properties": { "properties": null }, "geometry": { "type": "LineString", "coordinates": [ [ 4.402538, 50.815324 ], [ 4.402546, 50.815324 ], [ 4.402564, 50.815322 ], [ 4.402586, 50.815318 ], [ 4.40261, 50.815312 ], [ 4.402651, 50.8153 ], [ 4.402709, 50.815282 ], [ 4.402796, 50.815253 ], [ 4.402872, 50.815229 ], [ 4.402901, 50.815222 ], [ 4.402916, 50.81522 ], [ 4.402922, 50.815219 ] ] } },
{ "type": "Feature", "properties": { "properties": null }, "geometry": { "type": "LineString", "coordinates": [ [ 4.403851, 50.817089 ], [ 4.403844, 50.81708 ], [ 4.403832, 50.817058 ], [ 4.403822, 50.817032 ], [ 4.403812, 50.817001 ], [ 4.4038, 50.816949 ], [ 4.403782, 50.81687 ], [ 4.403767, 50.816806 ], [ 4.403755, 50.816761 ], [ 4.403741, 50.816715 ], [ 4.403724, 50.816668 ], [ 4.403704, 50.816622 ], [ 4.403681, 50.816576 ], [ 4.403653, 50.816531 ], [ 4.403629, 50.816498 ], [ 4.403612, 50.816476 ], [ 4.403603, 50.816465 ], [ 4.402784, 50.815538 ] ] } },
{ "type": "Feature", "properties": { "properties": null }, "geometry": { "type": "LineString", "coordinates": [ [ 4.403568, 50.816424 ], [ 4.403563, 50.816418 ], [ 4.403552, 50.816408 ], [ 4.403541, 50.8164 ], [ 4.403529, 50.816392 ], [ 4.403511, 50.816383 ], [ 4.403486, 50.816373 ], [ 4.403461, 50.816364 ], [ 4.403435, 50.816353 ], [ 4.403417, 50.816344 ], [ 4.403405, 50.816336 ], [ 4.403393, 50.816327 ], [ 4.403381, 50.816316 ], [ 4.403376, 50.81631 ], [ 4.402718, 50.815566 ] ] } },
{ "type": "Feature", "properties": { "properties": null }, "geometry": { "type": "LineString", "coordinates": [ [ 4.403718, 50.816641 ], [ 4.403706, 50.816622 ], [ 4.40368, 50.81659 ], [ 4.403655, 50.816562 ], [ 4.403628, 50.816539 ], [ 4.403602, 50.816519 ], [ 4.403575, 50.816502 ], [ 4.403548, 50.816487 ], [ 4.40352, 50.816474 ], [ 4.403479, 50.816456 ], [ 4.403439, 50.816438 ], [ 4.403412, 50.816425 ], [ 4.403385, 50.816411 ], [ 4.403359, 50.816394 ], [ 4.403333, 50.816374 ], [ 4.403308, 50.816351 ], [ 4.403295, 50.816338 ], [ 4.402642, 50.815596 ] ] } },
{ "type": "Feature", "properties": { "properties": null }, "geometry": { "type": "LineString", "coordinates": [ [ 4.403753, 50.816971 ], [ 4.403746, 50.816962 ], [ 4.403731, 50.816943 ], [ 4.403712, 50.816925 ], [ 4.403691, 50.816907 ], [ 4.403667, 50.816889 ], [ 4.40364, 50.816871 ], [ 4.403612, 50.816853 ], [ 4.403581, 50.816836 ], [ 4.403532, 50.81681 ], [ 4.403461, 50.816776 ], [ 4.403386, 50.816743 ], [ 4.403309, 50.816711 ], [ 4.403192, 50.816663 ], [ 4.403079, 50.816617 ], [ 4.403008, 50.816587 ], [ 4.402944, 50.816558 ], [ 4.402887, 50.816529 ], [ 4.40285, 50.816507 ], [ 4.402828, 50.816493 ], [ 4.40281, 50.816479 ], [ 4.402794, 50.816465 ], [ 4.402788, 50.816458 ], [ 4.40222, 50.815815 ] ] } },
{ "type": "Feature", "properties": { "properties": null }, "geometry": { "type": "LineString", "coordinates": [ [ 4.403406, 50.816755 ], [ 4.403388, 50.816747 ], [ 4.403347, 50.816732 ], [ 4.4033, 50.816717 ], [ 4.403248, 50.816703 ], [ 4.403164, 50.816683 ], [ 4.403045, 50.816655 ], [ 4.402954, 50.816633 ], [ 4.402894, 50.816617 ], [ 4.402837, 50.8166 ], [ 4.402783, 50.816582 ], [ 4.402733, 50.816563 ], [ 4.402698, 50.816547 ], [ 4.402677, 50.816536 ], [ 4.402658, 50.816525 ], [ 4.40264, 50.816513 ], [ 4.402624, 50.8165 ], [ 4.402609, 50.816487 ], [ 4.402603, 50.81648 ] ] } },
{ "type": "Feature", "properties": { "properties": null }, "geometry": { "type": "LineString", "coordinates": [ [ 4.403782, 50.817005 ], [ 4.403771, 50.816992 ], [ 4.403749, 50.816971 ], [ 4.403722, 50.816948 ], [ 4.40368, 50.816921 ], [ 4.403651, 50.816904 ], [ 4.403633, 50.816894 ], [ 4.403595, 50.816876 ], [ 4.403556, 50.816859 ], [ 4.403517, 50.816843 ], [ 4.403476, 50.816828 ], [ 4.403434, 50.816814 ], [ 4.40337, 50.816795 ], [ 4.403282, 50.816772 ], [ 4.403193, 50.816752 ], [ 4.403058, 50.816722 ], [ 4.402924, 50.816693 ], [ 4.402837, 50.816671 ], [ 4.402773, 50.816654 ], [ 4.402732, 50.816641 ], [ 4.402691, 50.816627 ], [ 4.402652, 50.816613 ], [ 4.402613, 50.816597 ], [ 4.402576, 50.81658 ], [ 4.402541, 50.816562 ], [ 4.402507, 50.816542 ], [ 4.402474, 50.816521 ], [ 4.402443, 50.816497 ], [ 4.402414, 50.816473 ], [ 4.402387, 50.816446 ], [ 4.402374, 50.816432 ] ] } },
{ "type": "Feature", "properties": { "properties": null }, "geometry": { "type": "LineString", "coordinates": [ [ 4.40307, 50.817313 ], [ 4.403059, 50.817296 ], [ 4.403039, 50.81726 ], [ 4.403021, 50.817222 ], [ 4.403004, 50.817182 ], [ 4.402966, 50.817079 ], [ 4.402919, 50.816947 ], [ 4.402892, 50.81688 ], [ 4.402872, 50.816835 ], [ 4.402849, 50.816791 ], [ 4.402823, 50.816746 ], [ 4.402793, 50.816702 ], [ 4.40276, 50.816658 ], [ 4.402742, 50.816637 ], [ 4.402188, 50.816004 ] ] } },
{ "type": "Feature", "properties": { "properties": null }, "geometry": { "type": "LineString", "coordinates": [ [ 4.403597, 50.815284 ], [ 4.403603, 50.815288 ], [ 4.403615, 50.815299 ], [ 4.403625, 50.81531 ], [ 4.403634, 50.815323 ], [ 4.403645, 50.815343 ], [ 4.403657, 50.815371 ], [ 4.40367, 50.815413 ], [ 4.403681, 50.815449 ], [ 4.403688, 50.815464 ], [ 4.403693, 50.815472 ], [ 4.403696, 50.815476 ] ] } },
{ "type": "Feature", "properties": { "properties": null }, "geometry": { "type": "LineString", "coordinates": [ [ 4.402063, 50.831063 ], [ 4.402119, 50.830993 ], [ 4.402223, 50.830865 ], [ 4.402319, 50.830753 ], [ 4.402406, 50.830656 ], [ 4.402486, 50.830572 ], [ 4.402557, 50.830501 ], [ 4.402621, 50.83044 ], [ 4.402679, 50.830388 ], [ 4.402752, 50.830325 ], [ 4.402829, 50.830263 ], [ 4.402872, 50.830226 ], [ 4.402894, 50.830203 ], [ 4.402912, 50.830181 ], [ 4.402926, 50.830158 ], [ 4.402931, 50.830145 ] ] } },
{ "type": "Feature", "properties": { "properties": null }, "geometry": { "type": "LineString", "coordinates": [ [ 4.314155, 50.840514 ], [ 4.314143, 50.840507 ], [ 4.314116, 50.840496 ], [ 4.314086, 50.840486 ], [ 4.314052, 50.840478 ], [ 4.314016, 50.84047 ], [ 4.313977, 50.840463 ], [ 4.313917, 50.840454 ], [ 4.313837, 50.840443 ], [ 4.313759, 50.840431 ], [ 4.313706, 50.840421 ], [ 4.313675, 50.840414 ], [ 4.313646, 50.840405 ], [ 4.313622, 50.840395 ], [ 4.313612, 50.84039 ] ] } },
{ "type": "Feature", "properties": { "properties": null }, "geometry": { "type": "LineString", "coordinates": [ [ 4.319651, 50.843161 ], [ 4.318679, 50.842527 ], [ 4.318653, 50.84251 ], [ 4.318601, 50.842479 ], [ 4.31855, 50.842451 ], [ 4.318498, 50.842425 ], [ 4.318446, 50.842402 ], [ 4.318394, 50.842381 ], [ 4.318342, 50.842362 ], [ 4.31829, 50.842345 ], [ 4.318236, 50.84233 ], [ 4.318182, 50.842316 ], [ 4.318128, 50.842304 ], [ 4.318072, 50.842293 ], [ 4.318016, 50.842283 ], [ 4.317958, 50.842274 ], [ 4.31787, 50.842262 ], [ 4.317809, 50.842255 ], [ 4.31772, 50.842244 ], [ 4.317592, 50.842227 ], [ 4.31751, 50.842214 ], [ 4.31743, 50.842201 ], [ 4.317351, 50.842186 ], [ 4.317274, 50.84217 ], [ 4.317198, 50.842152 ], [ 4.317122, 50.842131 ], [ 4.317046, 50.842107 ], [ 4.316969, 50.84208 ], [ 4.316891, 50.84205 ], [ 4.316811, 50.842017 ], [ 4.31673, 50.841979 ], [ 4.316646, 50.841937 ], [ 4.316559, 50.84189 ], [ 4.316514, 50.841864 ], [ 4.31394, 50.840389 ], [ 4.313921, 50.840377 ], [ 4.313882, 50.840351 ], [ 4.313843, 50.840321 ], [ 4.313803, 50.840287 ], [ 4.313744, 50.840233 ], [ 4.313664, 50.840154 ], [ 4.313583, 50.840073 ], [ 4.313504, 50.839994 ], [ 4.313444, 50.83994 ], [ 4.313405, 50.839906 ], [ 4.313366, 50.839876 ], [ 4.313328, 50.83985 ], [ 4.313309, 50.839839 ] ] } },
{ "type": "Feature", "properties": { "properties": null }, "geometry": { "type": "LineString", "coordinates": [ [ 4.319813, 50.843047 ], [ 4.31905, 50.842547 ], [ 4.319033, 50.842537 ], [ 4.318998, 50.842518 ], [ 4.318961, 50.842503 ], [ 4.318922, 50.84249 ], [ 4.318883, 50.842479 ], [ 4.318842, 50.84247 ], [ 4.318801, 50.842463 ], [ 4.31876, 50.842456 ], [ 4.318698, 50.842448 ], [ 4.318616, 50.842437 ], [ 4.318558, 50.842429 ], [ 4.318521, 50.842422 ], [ 4.318486, 50.842413 ], [ 4.318453, 50.842404 ], [ 4.318437, 50.842398 ] ] } },
{ "type": "Feature", "properties": { "properties": null }, "geometry": { "type": "LineString", "coordinates": [ [ 4.319917, 50.842985 ], [ 4.319135, 50.842475 ], [ 4.31912, 50.842465 ], [ 4.319089, 50.842446 ], [ 4.319057, 50.842428 ], [ 4.319025, 50.842411 ], [ 4.318992, 50.842396 ], [ 4.31896, 50.842382 ], [ 4.318927, 50.842369 ], [ 4.318894, 50.842357 ], [ 4.318861, 50.842347 ], [ 4.318829, 50.842338 ], [ 4.318797, 50.84233 ], [ 4.318766, 50.842325 ], [ 4.318735, 50.84232 ], [ 4.318705, 50.842317 ], [ 4.318675, 50.842316 ], [ 4.318647, 50.842317 ], [ 4.318634, 50.842318 ] ] } },
{ "type": "Feature", "properties": { "properties": null }, "geometry": { "type": "LineString", "coordinates": [ [ 4.320103, 50.842867 ], [ 4.319463, 50.842449 ], [ 4.319446, 50.842438 ], [ 4.319411, 50.842417 ], [ 4.319375, 50.842397 ], [ 4.319339, 50.842379 ], [ 4.319304, 50.842363 ], [ 4.319268, 50.842348 ], [ 4.319232, 50.842335 ], [ 4.319196, 50.842324 ], [ 4.31916, 50.842314 ], [ 4.319124, 50.842306 ], [ 4.319089, 50.842299 ], [ 4.319054, 50.842294 ], [ 4.319019, 50.842291 ], [ 4.318985, 50.842289 ], [ 4.318952, 50.842289 ], [ 4.318919, 50.84229 ], [ 4.318903, 50.842291 ] ] } },
{ "type": "Feature", "properties": { "properties": null }, "geometry": { "type": "LineString", "coordinates": [ [ 4.320085, 50.842727 ], [ 4.319674, 50.842457 ], [ 4.319648, 50.84244 ], [ 4.319593, 50.842406 ], [ 4.319534, 50.842373 ], [ 4.319472, 50.842341 ], [ 4.319425, 50.84232 ], [ 4.319394, 50.842307 ], [ 4.319362, 50.842296 ], [ 4.319331, 50.842286 ], [ 4.3193, 50.842278 ], [ 4.319269, 50.842272 ], [ 4.319239, 50.842269 ], [ 4.319209, 50.842267 ], [ 4.319195, 50.842268 ] ] } },
{ "type": "Feature", "properties": { "properties": null }, "geometry": { "type": "LineString", "coordinates": [ [ 4.320392, 50.842691 ], [ 4.319858, 50.842345 ], [ 4.31985, 50.842339 ], [ 4.319834, 50.84233 ], [ 4.319807, 50.842317 ], [ 4.319768, 50.842302 ], [ 4.319726, 50.842289 ], [ 4.319681, 50.842279 ], [ 4.319633, 50.842271 ], [ 4.319583, 50.842265 ], [ 4.31953, 50.842261 ], [ 4.319476, 50.842259 ], [ 4.319419, 50.842258 ], [ 4.319361, 50.842259 ], [ 4.319302, 50.842261 ], [ 4.319211, 50.842266 ], [ 4.319086, 50.842275 ], [ 4.318897, 50.842293 ], [ 4.31871, 50.84231 ], [ 4.31859, 50.84232 ], [ 4.318504, 50.842326 ], [ 4.318448, 50.842328 ], [ 4.318395, 50.84233 ], [ 4.318343, 50.84233 ], [ 4.318294, 50.842328 ], [ 4.318248, 50.842325 ], [ 4.318205, 50.84232 ], [ 4.318164, 50.842313 ], [ 4.318145, 50.842308 ] ] } },
{ "type": "Feature", "properties": { "properties": null }, "geometry": { "type": "LineString", "coordinates": [ [ 4.31909, 50.842977 ], [ 4.318502, 50.842592 ], [ 4.318474, 50.842574 ], [ 4.318399, 50.84253 ], [ 4.318306, 50.842479 ], [ 4.318227, 50.842438 ], [ 4.318171, 50.84241 ], [ 4.318112, 50.842383 ], [ 4.318052, 50.842356 ], [ 4.317992, 50.842331 ], [ 4.317931, 50.842307 ], [ 4.317871, 50.842286 ], [ 4.317811, 50.842268 ], [ 4.317753, 50.842253 ], [ 4.317711, 50.842244 ], [ 4.317684, 50.842239 ], [ 4.317671, 50.842238 ] ] } },
{ "type": "Feature", "properties": { "properties": null }, "geometry": { "type": "LineString", "coordinates": [ [ 4.320282, 50.842474 ], [ 4.319929, 50.842242 ], [ 4.319913, 50.842232 ], [ 4.319878, 50.842215 ], [ 4.319841, 50.8422 ], [ 4.319801, 50.842187 ], [ 4.319759, 50.842177 ], [ 4.319715, 50.842169 ], [ 4.319669, 50.842163 ], [ 4.319622, 50.84216 ], [ 4.319572, 50.842158 ], [ 4.319522, 50.842158 ], [ 4.31947, 50.842159 ], [ 4.319417, 50.842163 ], [ 4.319363, 50.842167 ], [ 4.319309, 50.842173 ], [ 4.319226, 50.842183 ], [ 4.319115, 50.8422 ], [ 4.319005, 50.842219 ], [ 4.318844, 50.842251 ], [ 4.318692, 50.842281 ], [ 4.318598, 50.8423 ], [ 4.318511, 50.842316 ], [ 4.318452, 50.842325 ], [ 4.318416, 50.842329 ], [ 4.318399, 50.842331 ] ] } },
{ "type": "Feature", "properties": { "properties": null }, "geometry": { "type": "LineString", "coordinates": [ [ 4.319802, 50.842315 ], [ 4.319777, 50.842306 ], [ 4.319721, 50.842283 ], [ 4.319661, 50.842258 ], [ 4.319596, 50.842232 ], [ 4.319547, 50.842214 ], [ 4.319513, 50.842203 ], [ 4.31948, 50.842193 ], [ 4.319447, 50.842185 ], [ 4.319414, 50.842178 ], [ 4.319382, 50.842173 ], [ 4.319351, 50.842171 ], [ 4.319321, 50.842171 ], [ 4.319306, 50.842172 ] ] } },
{ "type": "Feature", "properties": { "properties": null }, "geometry": { "type": "LineString", "coordinates": [ [ 4.330118, 50.863445 ], [ 4.330127, 50.863443 ], [ 4.330146, 50.863436 ], [ 4.330173, 50.863424 ], [ 4.33021, 50.863404 ], [ 4.330246, 50.86338 ], [ 4.330281, 50.863351 ], [ 4.330305, 50.863328 ], [ 4.33032, 50.863311 ], [ 4.330335, 50.863293 ], [ 4.330348, 50.863275 ], [ 4.33036, 50.863255 ], [ 4.33037, 50.863235 ], [ 4.330379, 50.863215 ], [ 4.330387, 50.863193 ], [ 4.330393, 50.863172 ], [ 4.330397, 50.863149 ], [ 4.330399, 50.863126 ], [ 4.330399, 50.863103 ], [ 4.330397, 50.863079 ], [ 4.330392, 50.863055 ], [ 4.330385, 50.86303 ], [ 4.330376, 50.863005 ], [ 4.330364, 50.86298 ], [ 4.330349, 50.862954 ], [ 4.330331, 50.862929 ], [ 4.33031, 50.862903 ], [ 4.330287, 50.862877 ], [ 4.330259, 50.862851 ], [ 4.330245, 50.862838 ], [ 4.3297, 50.862368 ], [ 4.329689, 50.862359 ], [ 4.329668, 50.862337 ], [ 4.329635, 50.8623 ], [ 4.32959, 50.862244 ], [ 4.329546, 50.862184 ], [ 4.329483, 50.862095 ], [ 4.329426, 50.862019 ], [ 4.329401, 50.86199 ], [ 4.329386, 50.861975 ], [ 4.329379, 50.861969 ] ] } },
{ "type": "Feature", "properties": { "properties": null }, "geometry": { "type": "LineString", "coordinates": [ [ 4.329899, 50.862537 ], [ 4.32989, 50.86253 ], [ 4.32987, 50.862517 ], [ 4.329847, 50.862504 ], [ 4.329821, 50.86249 ], [ 4.329777, 50.862471 ], [ 4.329714, 50.862445 ], [ 4.329649, 50.862419 ], [ 4.329586, 50.862394 ], [ 4.329544, 50.862374 ], [ 4.329519, 50.862361 ], [ 4.329497, 50.862348 ], [ 4.329479, 50.862335 ], [ 4.329471, 50.862328 ] ] } },
{ "type": "Feature", "properties": { "properties": null }, "geometry": { "type": "LineString", "coordinates": [ [ 4.330338, 50.863291 ], [ 4.330346, 50.86328 ], [ 4.330361, 50.863256 ], [ 4.330373, 50.863232 ], [ 4.330384, 50.863207 ], [ 4.330392, 50.863181 ], [ 4.330397, 50.863154 ], [ 4.3304, 50.863126 ], [ 4.3304, 50.863097 ], [ 4.330397, 50.863068 ], [ 4.33039, 50.863038 ], [ 4.33038, 50.863008 ], [ 4.330365, 50.862978 ], [ 4.330347, 50.862947 ], [ 4.330324, 50.862916 ], [ 4.330297, 50.862884 ], [ 4.330265, 50.862853 ], [ 4.330247, 50.862837 ] ] } },
{ "type": "Feature", "properties": { "properties": null }, "geometry": { "type": "LineString", "coordinates": [ [ 4.324118, 50.853366 ], [ 4.32412, 50.85337 ], [ 4.324122, 50.853379 ], [ 4.324122, 50.853395 ], [ 4.324117, 50.853421 ], [ 4.324107, 50.85345 ], [ 4.324086, 50.8535 ], [ 4.324049, 50.853574 ], [ 4.324009, 50.853654 ], [ 4.323983, 50.853714 ], [ 4.323969, 50.853754 ], [ 4.323959, 50.853792 ], [ 4.323953, 50.853829 ], [ 4.323953, 50.853855 ], [ 4.323955, 50.853871 ], [ 4.323958, 50.853887 ], [ 4.323963, 50.853902 ], [ 4.323967, 50.853909 ] ] } },
{ "type": "Feature", "properties": { "properties": null }, "geometry": { "type": "LineString", "coordinates": [ [ 4.322984, 50.851884 ], [ 4.322986, 50.851888 ], [ 4.322993, 50.851896 ], [ 4.323006, 50.85191 ], [ 4.323032, 50.85193 ], [ 4.323064, 50.851952 ], [ 4.323124, 50.851988 ], [ 4.323217, 50.852041 ], [ 4.323316, 50.852097 ], [ 4.323389, 50.85214 ], [ 4.323434, 50.85217 ], [ 4.323476, 50.8522 ], [ 4.323513, 50.852229 ], [ 4.323536, 50.852251 ], [ 4.323549, 50.852265 ], [ 4.323561, 50.852279 ], [ 4.32357, 50.852293 ], [ 4.323574, 50.8523 ] ] } },
{ "type": "Feature", "properties": { "properties": null }, "geometry": { "type": "LineString", "coordinates": [ [ 4.323135, 50.853539 ], [ 4.323137, 50.853543 ], [ 4.323143, 50.853551 ], [ 4.323157, 50.853565 ], [ 4.323182, 50.853585 ], [ 4.323215, 50.853606 ], [ 4.323273, 50.853642 ], [ 4.323365, 50.853694 ], [ 4.323462, 50.853749 ], [ 4.323534, 50.853792 ], [ 4.323578, 50.853821 ], [ 4.323619, 50.853851 ], [ 4.323655, 50.85388 ], [ 4.323678, 50.853901 ], [ 4.323691, 50.853916 ], [ 4.323703, 50.85393 ], [ 4.323712, 50.853944 ], [ 4.323715, 50.853951 ] ] } },
{ "type": "Feature", "properties": { "properties": null }, "geometry": { "type": "LineString", "coordinates": [ [ 4.322741, 50.851924 ], [ 4.322742, 50.851927 ], [ 4.322743, 50.851934 ], [ 4.322743, 50.851947 ], [ 4.322738, 50.85197 ], [ 4.32273, 50.851999 ], [ 4.322698, 50.852091 ], [ 4.32266, 50.8522 ], [ 4.322646, 50.852247 ], [ 4.322634, 50.852293 ], [ 4.322624, 50.852339 ], [ 4.322618, 50.852384 ], [ 4.322617, 50.852428 ], [ 4.322619, 50.852458 ], [ 4.322622, 50.852478 ], [ 4.322627, 50.852496 ], [ 4.322633, 50.852513 ], [ 4.322637, 50.852522 ] ] } },
{ "type": "Feature", "properties": { "properties": null }, "geometry": { "type": "LineString", "coordinates": [ [ 4.321914, 50.84685 ], [ 4.322203, 50.846165 ], [ 4.322208, 50.846151 ], [ 4.322216, 50.846123 ], [ 4.32222, 50.846094 ], [ 4.322221, 50.846064 ], [ 4.322219, 50.846034 ], [ 4.322214, 50.846004 ], [ 4.322206, 50.845974 ], [ 4.322194, 50.845946 ], [ 4.322187, 50.845932 ], [ 4.321613, 50.844809 ], [ 4.321608, 50.844799 ], [ 4.321595, 50.84478 ], [ 4.321581, 50.844761 ], [ 4.321565, 50.844743 ], [ 4.321547, 50.844725 ], [ 4.321527, 50.844707 ], [ 4.321505, 50.84469 ], [ 4.321481, 50.844674 ], [ 4.321456, 50.844658 ], [ 4.321429, 50.844643 ], [ 4.321401, 50.844628 ], [ 4.321371, 50.844615 ], [ 4.321339, 50.844602 ], [ 4.321306, 50.84459 ], [ 4.321273, 50.844578 ], [ 4.321237, 50.844568 ], [ 4.321201, 50.844558 ], [ 4.321164, 50.84455 ], [ 4.321125, 50.844542 ], [ 4.321086, 50.844535 ], [ 4.321046, 50.84453 ], [ 4.321005, 50.844525 ], [ 4.320963, 50.844522 ], [ 4.320921, 50.84452 ], [ 4.320878, 50.844519 ], [ 4.320834, 50.844519 ], [ 4.32079, 50.844521 ], [ 4.320746, 50.844524 ], [ 4.320702, 50.844528 ], [ 4.320657, 50.844534 ], [ 4.320612, 50.844541 ], [ 4.320567, 50.844549 ], [ 4.320544, 50.844554 ], [ 4.320171, 50.844636 ], [ 4.320144, 50.844643 ], [ 4.320092, 50.844656 ], [ 4.320043, 50.844671 ], [ 4.319997, 50.844688 ], [ 4.319953, 50.844705 ], [ 4.319913, 50.844724 ], [ 4.319875, 50.844744 ], [ 4.31984, 50.844764 ], [ 4.319807, 50.844786 ], [ 4.319777, 50.844808 ], [ 4.319749, 50.844831 ], [ 4.319724, 50.844854 ], [ 4.319701, 50.844878 ], [ 4.31968, 50.844903 ], [ 4.319662, 50.844928 ], [ 4.319645, 50.844953 ], [ 4.319631, 50.844979 ], [ 4.319618, 50.845004 ], [ 4.319608, 50.84503 ], [ 4.319599, 50.845056 ], [ 4.319592, 50.845082 ], [ 4.319587, 50.845107 ], [ 4.319583, 50.845132 ], [ 4.319581, 50.845157 ], [ 4.319581, 50.845182 ], [ 4.319582, 50.845206 ], [ 4.319586, 50.845242 ], [ 4.319596, 50.845286 ], [ 4.319611, 50.845328 ], [ 4.319619, 50.845347 ], [ 4.320433, 50.846987 ], [ 4.321387, 50.848608 ] ] } },
{ "type": "Feature", "properties": { "properties": null }, "geometry": { "type": "LineString", "coordinates": [ [ 4.321283, 50.844794 ], [ 4.321292, 50.844801 ], [ 4.321313, 50.844816 ], [ 4.32134, 50.844832 ], [ 4.32137, 50.844849 ], [ 4.321457, 50.844893 ], [ 4.32157, 50.844948 ], [ 4.321623, 50.844975 ], [ 4.321655, 50.844992 ], [ 4.321684, 50.845009 ], [ 4.321709, 50.845026 ], [ 4.321728, 50.845042 ], [ 4.321742, 50.845057 ], [ 4.321746, 50.845064 ] ] } },
{ "type": "Feature", "properties": { "properties": null }, "geometry": { "type": "LineString", "coordinates": [ [ 4.321757, 50.845614 ], [ 4.321764, 50.845628 ], [ 4.321773, 50.845655 ], [ 4.321777, 50.845682 ], [ 4.321777, 50.845708 ], [ 4.321773, 50.845733 ], [ 4.321766, 50.845759 ], [ 4.321751, 50.845797 ], [ 4.32174, 50.845824 ], [ 4.321211, 50.847025 ] ] } },
{ "type": "Feature", "properties": { "properties": null }, "geometry": { "type": "LineString", "coordinates": [ [ 4.321676, 50.845449 ], [ 4.32168, 50.845456 ], [ 4.321686, 50.845472 ], [ 4.321693, 50.8455 ], [ 4.321698, 50.845543 ], [ 4.321698, 50.845589 ], [ 4.321695, 50.845638 ], [ 4.321688, 50.845688 ], [ 4.321677, 50.845737 ], [ 4.321662, 50.845782 ], [ 4.321654, 50.845803 ], [ 4.321152, 50.846956 ] ] } },
{ "type": "Feature", "properties": { "properties": null }, "geometry": { "type": "LineString", "coordinates": [ [ 4.321578, 50.845379 ], [ 4.321577, 50.845386 ], [ 4.321574, 50.845399 ], [ 4.32157, 50.845412 ], [ 4.321564, 50.845423 ], [ 4.321553, 50.845438 ], [ 4.321536, 50.845457 ], [ 4.321507, 50.845483 ], [ 4.321479, 50.845512 ], [ 4.321466, 50.845529 ], [ 4.321459, 50.845541 ], [ 4.321456, 50.845548 ], [ 4.32097, 50.846713 ] ] } },
{ "type": "Feature", "properties": { "properties": null }, "geometry": { "type": "LineString", "coordinates": [ [ 4.321561, 50.845228 ], [ 4.321564, 50.845235 ], [ 4.321569, 50.845251 ], [ 4.321572, 50.845271 ], [ 4.321575, 50.845294 ], [ 4.321577, 50.845332 ], [ 4.321576, 50.845388 ], [ 4.321571, 50.845447 ], [ 4.321564, 50.845503 ], [ 4.321555, 50.845554 ], [ 4.321544, 50.845595 ], [ 4.321538, 50.84561 ], [ 4.321034, 50.846784 ] ] } },
{ "type": "Feature", "properties": { "properties": null }, "geometry": { "type": "LineString", "coordinates": [ [ 4.321457, 50.845022 ], [ 4.32146, 50.845029 ], [ 4.321465, 50.845043 ], [ 4.321468, 50.845056 ], [ 4.321469, 50.845069 ], [ 4.321468, 50.845089 ], [ 4.321462, 50.845115 ], [ 4.321453, 50.84514 ], [ 4.32144, 50.845166 ], [ 4.32142, 50.845205 ], [ 4.321407, 50.845232 ], [ 4.320858, 50.846541 ] ] } },
{ "type": "Feature", "properties": { "properties": null }, "geometry": { "type": "LineString", "coordinates": [ [ 4.321445, 50.845154 ], [ 4.321444, 50.845159 ], [ 4.32144, 50.845168 ], [ 4.321434, 50.845179 ], [ 4.321425, 50.84519 ], [ 4.321414, 50.845203 ], [ 4.321401, 50.845216 ], [ 4.321385, 50.84523 ], [ 4.321366, 50.845244 ], [ 4.321345, 50.845259 ], [ 4.321322, 50.845274 ], [ 4.321295, 50.845289 ], [ 4.321266, 50.845303 ], [ 4.321234, 50.845318 ], [ 4.321199, 50.845332 ], [ 4.321162, 50.845345 ], [ 4.321121, 50.845358 ], [ 4.3211, 50.845364 ], [ 4.320631, 50.845489 ], [ 4.320614, 50.845494 ], [ 4.32058, 50.845505 ], [ 4.320547, 50.845516 ], [ 4.320516, 50.845529 ], [ 4.320487, 50.845543 ], [ 4.320459, 50.845557 ], [ 4.320433, 50.845573 ], [ 4.320408, 50.845589 ], [ 4.320385, 50.845606 ], [ 4.320363, 50.845624 ], [ 4.320342, 50.845642 ], [ 4.320324, 50.845661 ], [ 4.320306, 50.84568 ], [ 4.32029, 50.845701 ], [ 4.320276, 50.845721 ], [ 4.320263, 50.845742 ], [ 4.320251, 50.845763 ], [ 4.320241, 50.845785 ], [ 4.320232, 50.845807 ], [ 4.320225, 50.845829 ], [ 4.320217, 50.845863 ], [ 4.32021, 50.845908 ], [ 4.32021, 50.845953 ], [ 4.320214, 50.845997 ], [ 4.320224, 50.846041 ], [ 4.320236, 50.846074 ], [ 4.320245, 50.846095 ], [ 4.32025, 50.846105 ] ] } },
{ "type": "Feature", "properties": { "properties": null }, "geometry": { "type": "LineString", "coordinates": [ [ 4.319669, 50.845438 ], [ 4.319673, 50.845445 ], [ 4.319687, 50.845464 ], [ 4.319708, 50.845485 ], [ 4.319735, 50.84551 ], [ 4.319783, 50.845552 ], [ 4.319856, 50.845613 ], [ 4.319934, 50.845676 ], [ 4.320009, 50.845736 ], [ 4.320057, 50.845778 ], [ 4.320084, 50.845802 ], [ 4.320105, 50.845824 ], [ 4.32012, 50.845842 ], [ 4.320125, 50.84585 ] ] } },
{ "type": "Feature", "properties": { "properties": null }, "geometry": { "type": "LineString", "coordinates": [ [ 4.319917, 50.84543 ], [ 4.319921, 50.845438 ], [ 4.319926, 50.845459 ], [ 4.319929, 50.845486 ], [ 4.31993, 50.845519 ], [ 4.31993, 50.845574 ], [ 4.319927, 50.845657 ], [ 4.319923, 50.845744 ], [ 4.31992, 50.845828 ], [ 4.31992, 50.845883 ], [ 4.319922, 50.845916 ], [ 4.319925, 50.845943 ], [ 4.31993, 50.845964 ], [ 4.319933, 50.845972 ] ] } },
{ "type": "Feature", "properties": { "properties": null }, "geometry": { "type": "LineString", "coordinates": [ [ 4.322024, 50.84561 ], [ 4.32203, 50.845624 ], [ 4.322039, 50.845652 ], [ 4.322043, 50.845678 ], [ 4.322043, 50.845704 ], [ 4.322039, 50.845729 ], [ 4.322032, 50.845755 ], [ 4.322017, 50.845793 ], [ 4.322006, 50.84582 ], [ 4.321597, 50.846803 ] ] } },
{ "type": "Feature", "properties": { "properties": null }, "geometry": { "type": "LineString", "coordinates": [ [ 4.321364, 50.845342 ], [ 4.321361, 50.845346 ], [ 4.321355, 50.845354 ], [ 4.321348, 50.845361 ], [ 4.321339, 50.845367 ], [ 4.321325, 50.845374 ], [ 4.321305, 50.845383 ], [ 4.321284, 50.845391 ], [ 4.321263, 50.845402 ], [ 4.321249, 50.845412 ], [ 4.32124, 50.84542 ], [ 4.321232, 50.84543 ], [ 4.321225, 50.845442 ], [ 4.321222, 50.845448 ], [ 4.320794, 50.846469 ] ] } },
{ "type": "Feature", "properties": { "properties": null }, "geometry": { "type": "LineString", "coordinates": [ [ 4.321775, 50.845728 ], [ 4.321773, 50.845734 ], [ 4.321771, 50.845746 ], [ 4.321771, 50.845766 ], [ 4.321774, 50.845814 ], [ 4.32178, 50.845866 ], [ 4.321783, 50.845901 ], [ 4.321782, 50.845935 ], [ 4.321778, 50.845959 ], [ 4.321773, 50.845974 ], [ 4.32177, 50.845981 ], [ 4.321277, 50.847097 ] ] } },
{ "type": "Feature", "properties": { "properties": null }, "geometry": { "type": "LineString", "coordinates": [ [ 4.321491, 50.845096 ], [ 4.321498, 50.84511 ], [ 4.321507, 50.845137 ], [ 4.321511, 50.845163 ], [ 4.321511, 50.845189 ], [ 4.321508, 50.845215 ], [ 4.321501, 50.845241 ], [ 4.321487, 50.84528 ], [ 4.321476, 50.845307 ], [ 4.32091, 50.846624 ] ] } },
{ "type": "Feature", "properties": { "properties": null }, "geometry": { "type": "LineString", "coordinates": [ [ 4.321694, 50.845625 ], [ 4.321692, 50.845633 ], [ 4.321688, 50.845647 ], [ 4.321682, 50.84566 ], [ 4.321675, 50.84567 ], [ 4.321664, 50.845684 ], [ 4.321645, 50.845699 ], [ 4.321624, 50.845713 ], [ 4.321603, 50.84573 ], [ 4.321587, 50.845746 ], [ 4.321577, 50.845759 ], [ 4.321567, 50.845773 ], [ 4.321558, 50.845791 ], [ 4.321554, 50.8458 ], [ 4.321095, 50.846868 ] ] } },
{ "type": "Feature", "properties": { "properties": null }, "geometry": { "type": "LineString", "coordinates": [ [ 4.321376, 50.847129 ], [ 4.321841, 50.846019 ], [ 4.321852, 50.845992 ], [ 4.321866, 50.845953 ], [ 4.321873, 50.845928 ], [ 4.321878, 50.845903 ], [ 4.321878, 50.845878 ], [ 4.321875, 50.845852 ], [ 4.321866, 50.845824 ], [ 4.321859, 50.84581 ], [ 4.321412, 50.84493 ], [ 4.321407, 50.84492 ], [ 4.321395, 50.844902 ], [ 4.321382, 50.844884 ], [ 4.321368, 50.844866 ], [ 4.321352, 50.84485 ], [ 4.321336, 50.844834 ], [ 4.321317, 50.844818 ], [ 4.321298, 50.844804 ], [ 4.321278, 50.84479 ], [ 4.321256, 50.844777 ], [ 4.321234, 50.844764 ], [ 4.32121, 50.844753 ], [ 4.321186, 50.844742 ], [ 4.321161, 50.844732 ], [ 4.321135, 50.844723 ], [ 4.321108, 50.844715 ], [ 4.321081, 50.844707 ], [ 4.321053, 50.8447 ], [ 4.32101, 50.844692 ], [ 4.320951, 50.844683 ], [ 4.320891, 50.844678 ], [ 4.320845, 50.844676 ], [ 4.320814, 50.844677 ], [ 4.320783, 50.844678 ], [ 4.320752, 50.84468 ], [ 4.320721, 50.844683 ], [ 4.320691, 50.844686 ], [ 4.32066, 50.844691 ], [ 4.320629, 50.844697 ], [ 4.320614, 50.8447 ], [ 4.320241, 50.844783 ], [ 4.320226, 50.844787 ], [ 4.320198, 50.844794 ], [ 4.32017, 50.844803 ], [ 4.320144, 50.844813 ], [ 4.320118, 50.844823 ], [ 4.320093, 50.844834 ], [ 4.320069, 50.844846 ], [ 4.320046, 50.844859 ], [ 4.320024, 50.844873 ], [ 4.320003, 50.844887 ], [ 4.319983, 50.844902 ], [ 4.319964, 50.844918 ], [ 4.319937, 50.844942 ], [ 4.319906, 50.844976 ], [ 4.31988, 50.845012 ], [ 4.319858, 50.845049 ], [ 4.319842, 50.845087 ], [ 4.319831, 50.845127 ], [ 4.319826, 50.845156 ], [ 4.319825, 50.845176 ], [ 4.319825, 50.845196 ], [ 4.319827, 50.845215 ], [ 4.31983, 50.845235 ], [ 4.319834, 50.845254 ], [ 4.31984, 50.845274 ], [ 4.319848, 50.845293 ], [ 4.319853, 50.845302 ], [ 4.32065, 50.84691 ], [ 4.321769, 50.848553 ] ] } },
{ "type": "Feature", "properties": { "properties": null }, "geometry": { "type": "LineString", "coordinates": [ [ 4.322099, 50.84586 ], [ 4.322097, 50.845877 ], [ 4.322091, 50.845904 ], [ 4.322081, 50.845927 ], [ 4.322068, 50.845947 ], [ 4.322046, 50.845975 ], [ 4.322023, 50.846004 ], [ 4.32201, 50.846027 ], [ 4.322004, 50.84604 ], [ 4.321681, 50.846811 ] ] } },
{ "type": "Feature", "properties": { "properties": null }, "geometry": { "type": "LineString", "coordinates": [ [ 4.32207, 50.845702 ], [ 4.322073, 50.84571 ], [ 4.32208, 50.845727 ], [ 4.322087, 50.845758 ], [ 4.322093, 50.845807 ], [ 4.322095, 50.84586 ], [ 4.322093, 50.845916 ], [ 4.322089, 50.845969 ], [ 4.322082, 50.846017 ], [ 4.322073, 50.846056 ], [ 4.322068, 50.846071 ], [ 4.321752, 50.846827 ] ] } },
{ "type": "Feature", "properties": { "properties": null }, "geometry": { "type": "LineString", "coordinates": [ [ 4.322162, 50.845882 ], [ 4.322169, 50.845896 ], [ 4.322179, 50.845923 ], [ 4.322183, 50.845949 ], [ 4.322182, 50.845975 ], [ 4.322178, 50.846001 ], [ 4.322171, 50.846026 ], [ 4.322157, 50.846065 ], [ 4.322146, 50.846092 ], [ 4.321837, 50.846835 ] ] } },
{ "type": "Feature", "properties": { "properties": null }, "geometry": { "type": "LineString", "coordinates": [ [ 4.322446, 50.846809 ], [ 4.322423, 50.846825 ], [ 4.322377, 50.846856 ], [ 4.322331, 50.846885 ], [ 4.322286, 50.846913 ], [ 4.322241, 50.846939 ], [ 4.322197, 50.846964 ], [ 4.322153, 50.846987 ], [ 4.322109, 50.847008 ], [ 4.322066, 50.847028 ], [ 4.322023, 50.847047 ], [ 4.321981, 50.847064 ], [ 4.321939, 50.84708 ], [ 4.321897, 50.847094 ], [ 4.321856, 50.847108 ], [ 4.321816, 50.84712 ], [ 4.321776, 50.84713 ], [ 4.321736, 50.84714 ], [ 4.321697, 50.847148 ], [ 4.321659, 50.847155 ], [ 4.321621, 50.847161 ], [ 4.321584, 50.847166 ], [ 4.321547, 50.84717 ], [ 4.32151, 50.847173 ], [ 4.321475, 50.847174 ], [ 4.321439, 50.847175 ], [ 4.321405, 50.847175 ], [ 4.321354, 50.847173 ], [ 4.321288, 50.847168 ], [ 4.321224, 50.847159 ], [ 4.321163, 50.847147 ], [ 4.321105, 50.847133 ], [ 4.321049, 50.847116 ], [ 4.320996, 50.847097 ], [ 4.320946, 50.847076 ], [ 4.320898, 50.847054 ], [ 4.320853, 50.847029 ], [ 4.320811, 50.847004 ], [ 4.320773, 50.846977 ], [ 4.320737, 50.84695 ], [ 4.320704, 50.846922 ], [ 4.320675, 50.846894 ], [ 4.320649, 50.846866 ], [ 4.320626, 50.846839 ], [ 4.320606, 50.846811 ], [ 4.32059, 50.846785 ], [ 4.320583, 50.846772 ] ] } },
{ "type": "Feature", "properties": { "properties": null }, "geometry": { "type": "LineString", "coordinates": [ [ 4.339081, 50.85558 ], [ 4.339073, 50.855584 ], [ 4.339057, 50.855597 ], [ 4.33904, 50.855614 ], [ 4.339022, 50.855634 ], [ 4.338995, 50.855669 ], [ 4.338957, 50.855722 ], [ 4.338918, 50.855778 ], [ 4.338878, 50.855832 ], [ 4.338849, 50.855868 ], [ 4.338829, 50.855889 ], [ 4.338809, 50.855907 ], [ 4.33879, 50.85592 ], [ 4.33878, 50.855926 ] ] } },
{ "type": "Feature", "properties": { "properties": null }, "geometry": { "type": "LineString", "coordinates": [ [ 4.339608, 50.836641 ], [ 4.339615, 50.836638 ], [ 4.339632, 50.836632 ], [ 4.339651, 50.836626 ], [ 4.339672, 50.836621 ], [ 4.339707, 50.836614 ], [ 4.339761, 50.836606 ], [ 4.339821, 50.836599 ], [ 4.339885, 50.836593 ], [ 4.339987, 50.836585 ], [ 4.340128, 50.836575 ], [ 4.340231, 50.836566 ], [ 4.340296, 50.836558 ], [ 4.340356, 50.83655 ], [ 4.340411, 50.83654 ], [ 4.340448, 50.836531 ], [ 4.34047, 50.836524 ], [ 4.340489, 50.836517 ], [ 4.340507, 50.836509 ], [ 4.340514, 50.836505 ] ] } },
{ "type": "Feature", "properties": { "properties": null }, "geometry": { "type": "LineString", "coordinates": [ [ 4.34581, 50.83303 ], [ 4.345827, 50.83303 ], [ 4.345859, 50.833031 ], [ 4.345891, 50.833034 ], [ 4.345924, 50.83304 ], [ 4.345956, 50.83305 ], [ 4.34599, 50.833063 ], [ 4.346024, 50.833081 ], [ 4.346061, 50.833103 ], [ 4.34608, 50.833117 ] ] } }
]
}
